{
  "title": "task-launcher",
  "description": "task-launcher",
  "type": "object",
  "schemaVersion": 1,
  "properties": {
    "taskId": {
      "title": "taskId",
      "type": "string",
      "description": "Task id",
      "editor": "textfield"
    },
    "memory": {
      "title": "Memory in MBs",
      "type": "integer",
      "description": "Memory has to be a power of 2",
      "editor": "number",
      "default": 2048
    },
    "maxItems": {
      "title": "maxItems",
      "type": "integer",
      "description": "Statistics logging interval in milliseconds",
      "default": 20,
      "editor": "number"
    },
    "useClient": {
      "title": "useClient",
      "type": "boolean",
      "description": "js-client will be used un case of true value",
      "default": true,
      "editor": "checkbox"
    },
    "fields": {
      "title": "fields",
      "type": "array",
      "description": "Array of fields to fetch from the dataset",
      "editor": "stringList",
      "minItems": 1,
      "uniqueItems": true,
      "patternValue": "(title|url|description|keyword|sellerName|shippingPrice|price)"
    }
  },
  "required": ["taskId"]
}
